Manipulacion I
…
---
<div class="my-header"></div>
## Los datos

Retomamos el dataset sobre decisiones de Perú frente a los pedidos de asilo 

(es una traducción y simplificación del dataset de UNHCR sobre decisiones de Perú: [https://data.humdata.org/dataset/unhcr-population-data-for-per](https://data.humdata.org/dataset/unhcr-population-data-for-per))

```r
decisiones <- read_csv("data/decisiones_asilo_peru.csv")
decisiones
```

```
## # A tibble: 164 x 15
##     Anio `Codigo Pais Or~ `Codigo Pais As~ `Nombre Pais de~ `Nombre Pais As~
##    <dbl> <chr>            <chr>            <chr>            <chr>           
##  1  2000 COL              PER              Colombia         Peru            
##  2  2000 CUB              PER              Cuba             Peru            
##  3  2001 RUS              PER              Russian Federat~ Peru            
##  4  2002 COL              PER              Colombia         Peru            
##  5  2002 CUB              PER              Cuba             Peru            
##  6  2003 ARG              PER              Argentina        Peru            
##  7  2003 COL              PER              Colombia         Peru            
##  8  2003 CUB              PER              Cuba             Peru            
##  9  2003 PSE              PER              State of Palest~ Peru            
## 10  2003 IRQ              PER              Iraq             Peru            
## # ... with 154 more rows, and 10 more variables: `Tipo de procedimiento` <chr>,
## #   `Nombre del Procedimiento` <chr>, `Codigo de Tipo de Decision` <chr>, `Tipo
## #   de Datos de Decision` <chr>, `Datos de Decision` <chr>, `Promedio de
## #   Personas de decision por Caso` <dbl>, Reconocidas <dbl>, `Proteccion
## #   Complementaria` <dbl>, `Cerradas de otra forma` <dbl>, Rechazadas <dbl>
```
…
> `select(dataset, -c(columna1, columna2))`

Supongamos que solo nos interesan: año, país de origen, decisión tomada(4)

Entonces redefinimos el dataset de la siguiente forma

```r
decisiones <- select(decisiones, 
                     c(Anio, `Codigo Pais Origen`, Reconocidas, Rechazadas,
                       `Proteccion Complementaria`, `Cerradas de otra forma`))
decisiones
```

```
## # A tibble: 164 x 6
##     Anio `Codigo Pais Or~ Reconocidas Rechazadas `Proteccion Com~
##    <dbl> <chr>                  <dbl>      <dbl>            <dbl>
##  1  2000 COL                        0          0                0
##  2  2000 CUB                        0         10                0
##  3  2001 RUS                        5          0                0
##  4  2002 COL                        5          5                0
##  5  2002 CUB                        5          0                0
##  6  2003 ARG                        0          0                0
##  7  2003 COL                       19          0                0
##  8  2003 CUB                        0          0                0
##  9  2003 PSE                        5          0                0
## 10  2003 IRQ                        5          0                0
## # ... with 154 more rows, and 1 more variable: `Cerradas de otra forma` <dbl>
```
…
Si quiero ordenar una tabla según los valores de una o más variables puedo

> `arrange(dataset, columna)`

Por ejemplo, si quiero saber cuales fueron los años y países con mas pedidos de asilo

```r
arrange(decisiones, desc(Reconocidas))
```

```
## # A tibble: 164 x 7
##     Anio `Codigo Pais Or~ Reconocidas Rechazadas `Proteccion Com~
##    <dbl> <chr>                  <dbl>      <dbl>            <dbl>
##  1  2019 VEN                      578        171                0
##  2  2018 VEN                      390        191                0
##  3  2012 COL                      120          0                0
##  4  2017 VEN                      102        412                0
##  5  2019 CUB                       79         59                0
##  6  2014 COL                       71        104                0
##  7  2015 VEN                       71         51                0
##  8  2018 CUB                       70         96                0
##  9  2016 VEN                       64         69                0
## 10  2015 COL                       59         89                0
## # ... with 154 more rows, and 2 more variables: `Cerradas de otra forma` <dbl>,
## #   total <dbl>
```
…
Una vez que están agrupados queremos elegir como resumirlo

```r
decisiones %>%
  group_by(`Codigo Pais Origen`) %>%
  summarise(total_aceptado = sum(Reconocidas))
```

```
## `summarise()` ungrouping output (override with `.groups` argument)
```

```
## # A tibble: 36 x 2
##    `Codigo Pais Origen` total_aceptado
##    <chr>                         <dbl>
##  1 ARG                               0
##  2 BGD                              36
##  3 BOL                              25
##  4 BRA                               5
##  5 CMR                              20
##  6 COD                               5
##  7 COL                             684
##  8 CUB                             434
##  9 DOM                              30
## 10 ECU                               0
## # ... with 26 more rows
```
…
--

```r
decisiones %>%
  group_by(`Codigo Pais Origen`) %>%
  summarise(total_aceptado = sum(Reconocidas)) %>%
  arrange(desc(total_aceptado))
```

```
## `summarise()` ungrouping output (override with `.groups` argument)
```

```
## # A tibble: 36 x 2
##    `Codigo Pais Origen` total_aceptado
##    <chr>                         <dbl>
##  1 VEN                            1235
##  2 COL                             684
##  3 CUB                             434
##  4 HTI                              81
##  5 SYR                              47
##  6 TUR                              44
##  7 BGD                              36
##  8 PSE                              35
##  9 DOM                              30
## 10 IRQ                              30
## # ... with 26 more rows
```
…
