Visualización
…
Si por algún motivo no estás en un proyecto, vuelve al proyecto del curso

---
<div class="my-header"></div>

## Más gráficos

Volvamos a la tabla de decisiones de pedidos de asilos en Colombia

```r
decisiones
```

```
## # A tibble: 133 x 16
##     Anio `Codigo Pais Or~ `Codigo Pais As~ `Nombre Pais de~ `Nombre Pais As~
##    <dbl> <chr>            <chr>            <chr>            <chr>           
##  1  2002 CUB              COL              Cuba             Colombia        
##  2  2002 IRQ              COL              Iraq             Colombia        
##  3  2003 IRN              COL              Iran (Islamic R~ Colombia        
##  4  2003 IRN              COL              Iran (Islamic R~ Colombia        
##  5  2003 VEN              COL              Venezuela (Boli~ Colombia        
##  6  2004 CUB              COL              Cuba             Colombia        
##  7  2004 PER              COL              Peru             Colombia        
##  8  2004 UZB              COL              Uzbekistan       Colombia        
##  9  2005 CUB              COL              Cuba             Colombia        
## 10  2005 CUB              COL              Cuba             Colombia        
## # ... with 123 more rows, and 11 more variables: `Tipo de procedimiento` <chr>,
## #   `Nombre del Procedimiento` <chr>, `Codigo de Tipo de Decision` <chr>, `Tipo
## #   de Datos de Decision` <chr>, `Datos de Decision` <chr>, `Promedio de
## #   Personas de decision por Caso` <dbl>, Reconocidas <dbl>, `Proteccion
## #   Complementaria` <dbl>, `Cerradas de otra forma` <dbl>, Rechazadas <dbl>,
## #   total <dbl>
```
…
