…
decisiones

## # A tibble: 164 x 15
##     Anio `Codigo Pais Or~ `Codigo Pais As~ `Nombre Pais de~ `Nombre Pais As~
##    <dbl> <chr>            <chr>            <chr>            <chr>           
##  1  2000 COL              PER              Colombia         Peru            
##  2  2000 CUB              PER              Cuba             Peru            
##  3  2001 RUS              PER              Russian Federat~ Peru            
##  4  2002 COL              PER              Colombia         Peru            
##  5  2002 CUB              PER              Cuba             Peru            
##  6  2003 ARG              PER              Argentina        Peru            
##  7  2003 COL              PER              Colombia         Peru            
##  8  2003 CUB              PER              Cuba             Peru            
##  9  2003 PSE              PER              State of Palest~ Peru            
## 10  2003 IRQ              PER              Iraq             Peru            
## # ... with 154 more rows, and 10 more variables: `Tipo de procedimiento` <chr>,
## #   `Nombre del Procedimiento` <chr>, `Codigo de Tipo de Decision` <chr>, `Tipo
## #   de Datos de Decision` <chr>, `Datos de Decision` <chr>, `Promedio de
## #   Personas de decision por Caso` <dbl>, Reconocidas <dbl>, `Proteccion
## #   Complementaria` <dbl>, `Cerradas de otra forma` <dbl>, Rechazadas <dbl>
paises_largo <- read_csv("data/paises_largo.csv")

## 
## -- Column specification --------------------------------------------------------
## cols(
##   pais = col_character(),
##   continente = col_character(),
##   anio = col_double(),
##   variable = col_character(),
##   valor = col_double()
## )

decisiones

## # A tibble: 164 x 15
##     Anio `Codigo Pais Or~ `Codigo Pais As~ `Nombre Pais de~ `Nombre Pais As~
##    <dbl> <chr>            <chr>            <chr>            <chr>           
##  1  2000 COL              PER              Colombia         Peru            
##  2  2000 CUB              PER              Cuba             Peru            
##  3  2001 RUS              PER              Russian Federat~ Peru            
##  4  2002 COL              PER              Colombia         Peru            
##  5  2002 CUB              PER              Cuba             Peru            
##  6  2003 ARG              PER              Argentina        Peru            
##  7  2003 COL              PER              Colombia         Peru            
##  8  2003 CUB              PER              Cuba             Peru            
##  9  2003 PSE              PER              State of Palest~ Peru            
## 10  2003 IRQ              PER              Iraq             Peru            
## # ... with 154 more rows, and 10 more variables: `Tipo de procedimiento` <chr>,
## #   `Nombre del Procedimiento` <chr>, `Codigo de Tipo de Decision` <chr>, `Tipo
## #   de Datos de Decision` <chr>, `Datos de Decision` <chr>, `Promedio de
## #   Personas de decision por Caso` <dbl>, Reconocidas <dbl>, `Proteccion
## #   Complementaria` <dbl>, `Cerradas de otra forma` <dbl>, Rechazadas <dbl>
…
